%YAML 1.1
%TAG !u! tag:unity3d.com,2011:
--- !u!114 &11400000
MonoBehaviour:
  m_ObjectHideFlags: 0
  m_CorrespondingSourceObject: {fileID: 0}
  m_PrefabInstance: {fileID: 0}
  m_PrefabAsset: {fileID: 0}
  m_GameObject: {fileID: 0}
  m_Enabled: 1
  m_EditorHideFlags: 0
  m_Script: {fileID: 11500000, guid: 468a46d0ae32c3544b7d98094e6448a9, type: 3}
  m_Name: AddressableAssetSettings
  m_EditorClassIdentifier: 
  m_DefaultGroup: d6506c4535c82ca4ab154bcf6d623e10
  m_OptimizeCatalogSize: 0
  m_BuildRemoteCatalog: 0
  m_BundleLocalCatalog: 0
  m_DisableCatalogUpdateOnStart: 0
  m_IgnoreUnsupportedFilesInBuild: 0
  m_UniqueBundleIds: 0
  m_maxConcurrentWebRequests: 500
  m_ContiguousBundles: 0
  m_RemoteCatalogBuildPath:
    m_Id: 
  m_RemoteCatalogLoadPath:
    m_Id: 
  m_overridePlayerVersion: 
  m_GroupAssets:
  - {fileID: 11400000, guid: 5f4d15165da2b5d4481c5d2c0e2c5dbe, type: 2}
  - {fileID: 11400000, guid: ffa84736f87bf0343b34795f67f3358c, type: 2}
  m_BuildSettings:
    m_CompileScriptsInVirtualMode: 0
    m_CleanupStreamingAssetsAfterBuilds: 1
    m_LogResourceManagerExceptions: 1
    m_BundleBuildPath: Temp/com.unity.addressables/AssetBundles
  m_ProfileSettings:
    m_Profiles:
    - m_InheritedParent: 
      m_Id: 3f050616646016c47ae48aafbbf1ad90
      m_ProfileName: Default
      m_Values:
      - m_Id: 903afb9813969024bba108b5a4a9fd5c
        m_Value: '[UnityEditor.EditorUserBuildSettings.activeBuildTarget]'
      - m_Id: 872024a66e4cab04cadc7e5c475f63da
        m_Value: '[UnityEngine.AddressableAssets.Addressables.BuildPath]/[BuildTarget]'
      - m_Id: b9f91d71e8061aa41847cbda45b3c255
        m_Value: '{UnityEngine.AddressableAssets.Addressables.RuntimePath}/[BuildTarget]'
      - m_Id: 64c673d9177365543889048aee0a1749
        m_Value: ServerData/[BuildTarget]
      - m_Id: c5a8d7e9b2f507340866223158b61eda
        m_Value: http://localhost/[BuildTarget]
    m_ProfileEntryNames:
    - m_Id: 903afb9813969024bba108b5a4a9fd5c
      m_Name: BuildTarget
      m_InlineUsage: 0
    - m_Id: 872024a66e4cab04cadc7e5c475f63da
      m_Name: LocalBuildPath
      m_InlineUsage: 0
    - m_Id: b9f91d71e8061aa41847cbda45b3c255
      m_Name: LocalLoadPath
      m_InlineUsage: 0
    - m_Id: 64c673d9177365543889048aee0a1749
      m_Name: RemoteBuildPath
      m_InlineUsage: 0
    - m_Id: c5a8d7e9b2f507340866223158b61eda
      m_Name: RemoteLoadPath
      m_InlineUsage: 0
    m_ProfileVersion: 1
  m_LabelTable:
    m_LabelNames:
    - default
  m_SchemaTemplates: []
  m_GroupTemplateObjects:
  - {fileID: 11400000, guid: 799eed147236896489eed7ae5681218a, type: 2}
  m_InitializationObjects: []
  m_CertificateHandlerType:
    m_AssemblyName: 
    m_ClassName: 
  m_ActivePlayerDataBuilderIndex: 3
  m_DataBuilders:
  - {fileID: 11400000, guid: 4949e57229d9d994ab198691af909876, type: 2}
  - {fileID: 11400000, guid: aba46ece4274cae429b08f093e0e13cb, type: 2}
  - {fileID: 11400000, guid: 34bd09a27a5ef2a48ba108f72d2a809f, type: 2}
  - {fileID: 11400000, guid: ac8b74d3bcc346243b59851198eb7b84, type: 2}
  m_ActiveProfileId: 3f050616646016c47ae48aafbbf1ad90
  m_HostingServicesManager:
    m_HostingServiceInfos: []
    m_Settings: {fileID: 11400000}
    m_NextInstanceId: 0
    m_RegisteredServiceTypeRefs: []
